[gd_scene load_steps=3 format=2]

[ext_resource path="res://Sprites/Wall.png" type="Texture" id=1]

[sub_resource type="RectangleShape2D" id=1]
extents = Vector2( 16, 16 )

[node name="Wall" type="StaticBody2D"]

[node name="Wall" type="Sprite" parent="."]
scale = Vector2( 1, 1 )
texture = ExtResource( 1 )

[node name="CollisionShape2D" type="CollisionShape2D" parent="."]
shape = SubResource( 1 )
